<svg width="23" height="23" viewBox="0 0 23 23" fill="none" xmlns="http://www.w3.org/2000/svg">
<path d="M22 16.359C15.3053 16.359 4.35715 16.359 4.35715 16.359V11.5M0 2H4.3572V4.05128M4.3572 4.05128H20.5477L20.5476 11.5H4.35715M4.3572 4.05128L4.35715 11.5" stroke="black" stroke-width="3"/>
<circle cx="16" cy="21" r="2" fill="black"/>
<circle cx="9" cy="21" r="2" fill="black"/>
</svg>