<svg width="20" height="20" viewBox="0 0 20 20" fill="none" xmlns="http://www.w3.org/2000/svg">
<rect width="20" height="2" fill="#DDDDDD"/>
<rect y="6" width="20" height="2" fill="#DDDDDD"/>
<rect y="12" width="20" height="2" fill="#DDDDDD"/>
<rect y="18" width="20" height="2" fill="#DDDDDD"/>
</svg>
